\babel@toc {russian}{}
\contentsline {schapter}{\IeC {\CYRCH }\IeC {\cyrt }\IeC {\cyro } \IeC {\cyrt }\IeC {\cyra }\IeC {\cyrk }\IeC {\cyro }\IeC {\cyre } \IeC {\cyrm }\IeC {\cyri }\IeC {\cyrk }\IeC {\cyrr }\IeC {\cyro }\IeC {\cyrk }\IeC {\cyro }\IeC {\cyrn }\IeC {\cyrt }\IeC {\cyrr }\IeC {\cyro }\IeC {\cyrl }\IeC {\cyrl }\IeC {\cyre }\IeC {\cyrr }?}{3}{chapter*.2}
\babel@toc {russian}{}
\contentsline {schapter}{\IeC {\CYRV }\IeC {\cyrv }\IeC {\cyre }\IeC {\cyrd }\IeC {\cyre }\IeC {\cyrn }\IeC {\cyri }\IeC {\cyre }}{4}{chapter*.3}
\babel@toc {russian}{}
\babel@toc {russian}{}
\contentsline {chapter}{\numberline {1}\IeC {\CYRM }\IeC {\cyri }\IeC {\cyrk }\IeC {\cyrr }\IeC {\cyro }\IeC {\cyrk }\IeC {\cyro }\IeC {\cyrn }\IeC {\cyrt }\IeC {\cyrr }\IeC {\cyro }\IeC {\cyrl }\IeC {\cyrl }\IeC {\cyre }\IeC {\cyrr } STM32}{5}{chapter.1}
\contentsline {section}{\numberline {1.1}\IeC {\CYRS }\IeC {\cyre }\IeC {\cyrm }\IeC {\cyre }\IeC {\cyrishrt }\IeC {\cyrs }\IeC {\cyrt }\IeC {\cyrv }\IeC {\cyra } \IeC {\cyrya }\IeC {\cyrd }\IeC {\cyre }\IeC {\cyrr } \IeC {\CYRS }ortex-M}{5}{section.1.1}
\contentsline {section}{\numberline {1.2}\IeC {\CYRT }\IeC {\cyra }\IeC {\cyrb }\IeC {\cyrl }\IeC {\cyri }\IeC {\cyrc }\IeC {\cyra } \IeC {\cyrs } \IeC {\cyrh }\IeC {\cyra }\IeC {\cyrr }\IeC {\cyra }\IeC {\cyrk }\IeC {\cyrt }\IeC {\cyre }\IeC {\cyrr }\IeC {\cyri }\IeC {\cyrs }\IeC {\cyrt }\IeC {\cyri }\IeC {\cyrk }\IeC {\cyra }\IeC {\cyrm }\IeC {\cyri }}{6}{section.1.2}
\contentsline {chapter}{\numberline {2}\IeC {\CYRM }\IeC {\cyri }\IeC {\cyrk }\IeC {\cyrr }\IeC {\cyro }\IeC {\cyrk }\IeC {\cyro }\IeC {\cyrn }\IeC {\cyrt }\IeC {\cyrr }\IeC {\cyro }\IeC {\cyrl }\IeC {\cyrl }\IeC {\cyre }\IeC {\cyrr } ESP32}{8}{chapter.2}
\contentsline {section}{\numberline {2.1}\IeC {\CYRR }\IeC {\cyra }\IeC {\cyrs }\IeC {\cyrp }\IeC {\cyri }\IeC {\cyrn }\IeC {\cyro }\IeC {\cyrv }\IeC {\cyrk }\IeC {\cyra } \IeC {\cyro }\IeC {\cyrt }\IeC {\cyrl }\IeC {\cyra }\IeC {\cyrd }\IeC {\cyro }\IeC {\cyrch }\IeC {\cyrn }\IeC {\cyro }\IeC {\cyrishrt } \IeC {\cyrp }\IeC {\cyrl }\IeC {\cyra }\IeC {\cyrt }\IeC {\cyrery } ESP32:}{9}{section.2.1}
\contentsline {section}{\numberline {2.2}\IeC {\CYRT }\IeC {\cyra }\IeC {\cyrb }\IeC {\cyrl }\IeC {\cyri }\IeC {\cyrc }\IeC {\cyra } \IeC {\cyrs } \IeC {\cyrh }\IeC {\cyra }\IeC {\cyrr }\IeC {\cyra }\IeC {\cyrk }\IeC {\cyrt }\IeC {\cyre }\IeC {\cyrr }\IeC {\cyri }\IeC {\cyrs }\IeC {\cyrt }\IeC {\cyri }\IeC {\cyrk }\IeC {\cyra }\IeC {\cyrm }\IeC {\cyri }}{9}{section.2.2}
