\BOOKMARK [0][-]{chapter*.2}{\376\377\004\047\004\102\004\076\000\040\004\102\004\060\004\072\004\076\004\065\000\040\004\074\004\070\004\072\004\100\004\076\004\072\004\076\004\075\004\102\004\100\004\076\004\073\004\073\004\065\004\100\000?}{}% 1
\BOOKMARK [0][-]{chapter*.3}{\376\377\004\022\004\062\004\065\004\064\004\065\004\075\004\070\004\065}{}% 2
\BOOKMARK [0][-]{chapter.1}{\376\377\004\034\004\070\004\072\004\100\004\076\004\072\004\076\004\075\004\102\004\100\004\076\004\073\004\073\004\065\004\100\000\040\000S\000T\000M\0003\0002}{}% 3
\BOOKMARK [1][-]{section.1.1}{\376\377\004\041\004\065\004\074\004\065\004\071\004\101\004\102\004\062\004\060\000\040\004\117\004\064\004\065\004\100\000\040\004\041\000o\000r\000t\000e\000x\000-\000M}{chapter.1}% 4
\BOOKMARK [1][-]{section.1.2}{\376\377\004\042\004\060\004\061\004\073\004\070\004\106\004\060\000\040\004\101\000\040\004\105\004\060\004\100\004\060\004\072\004\102\004\065\004\100\004\070\004\101\004\102\004\070\004\072\004\060\004\074\004\070}{chapter.1}% 5
\BOOKMARK [0][-]{chapter.2}{\376\377\004\034\004\070\004\072\004\100\004\076\004\072\004\076\004\075\004\102\004\100\004\076\004\073\004\073\004\065\004\100\000\040\000E\000S\000P\0003\0002}{}% 6
\BOOKMARK [1][-]{section.2.1}{\376\377\004\040\004\060\004\101\004\077\004\070\004\075\004\076\004\062\004\072\004\060\000\040\004\076\004\102\004\073\004\060\004\064\004\076\004\107\004\075\004\076\004\071\000\040\004\077\004\073\004\060\004\102\004\113\000\040\000E\000S\000P\0003\0002\000:}{chapter.2}% 7
\BOOKMARK [1][-]{section.2.2}{\376\377\004\042\004\060\004\061\004\073\004\070\004\106\004\060\000\040\004\101\000\040\004\105\004\060\004\100\004\060\004\072\004\102\004\065\004\100\004\070\004\101\004\102\004\070\004\072\004\060\004\074\004\070}{chapter.2}% 8
