\BOOKMARK [0][-]{chapter.1}{\376\377\004\037\004\100\004\065\004\064\004\070\004\101\004\073\004\076\004\062\004\070\004\065}{}% 1
\BOOKMARK [0][-]{chapter*.2}{\376\377\004\022\004\062\004\065\004\064\004\065\004\075\004\070\004\065}{}% 2
\BOOKMARK [0][-]{chapter.2}{\376\377\004\043\004\100\004\060\004\062\004\075\004\065\004\075\004\070\004\065\000\040\004\050\004\100\004\065\004\064\004\070\004\075\004\063\004\065\004\100\004\060\000\040\004\064\004\073\004\117\000\040\004\062\004\076\004\064\004\076\004\100\004\076\004\064\004\076\004\077\004\076\004\064\004\076\004\061\004\075\004\076\004\063\004\076\000\040\004\060\004\102\004\076\004\074\004\060}{}% 3
\BOOKMARK [1][-]{section.2.1}{\376\377\004\043\004\100\004\060\004\062\004\075\004\065\004\075\004\070\004\065\000\040\004\050\004\100\004\065\004\064\004\070\004\075\004\063\004\065\004\100\004\060\000\040\004\060\004\102\004\076\004\074\004\076\004\062\000\040\004\070\004\073\004\070\000\040\004\060\004\102\004\076\004\074\004\075\004\113\004\105\000\040\004\070\004\076\004\075\004\076\004\062}{chapter.2}% 4
\BOOKMARK [0][-]{chapter.3}{\376\377\004\042\004\065\004\076\004\100\004\065\004\074\004\060\000\040\004\076\000\040\004\100\004\060\004\101\004\105\004\076\004\064\004\070\004\074\004\076\004\101\004\102\004\070}{}% 5
\BOOKMARK [1][-]{section.3.1}{\376\377\004\044\004\076\004\100\004\074\004\103\004\073\004\060\000\040\004\023\004\060\004\103\004\101\004\101\004\060\000\040\040\024\000\040\004\036\004\101\004\102\004\100\004\076\004\063\004\100\004\060\004\064\004\101\004\072\004\076\004\063\004\076}{chapter.3}% 6
