\babel@toc {russian}{}
\contentsline {chapter}{\numberline {1}\IeC {\CYRP }\IeC {\cyrr }\IeC {\cyre }\IeC {\cyrd }\IeC {\cyri }\IeC {\cyrs }\IeC {\cyrl }\IeC {\cyro }\IeC {\cyrv }\IeC {\cyri }\IeC {\cyre }}{3}{chapter.1}
\babel@toc {russian}{}
\contentsline {schapter}{\IeC {\CYRV }\IeC {\cyrv }\IeC {\cyre }\IeC {\cyrd }\IeC {\cyre }\IeC {\cyrn }\IeC {\cyri }\IeC {\cyre }}{4}{chapter*.2}
\babel@toc {russian}{}
\babel@toc {russian}{}
\contentsline {chapter}{\numberline {2}\IeC {\CYRU }\IeC {\cyrr }\IeC {\cyra }\IeC {\cyrv }\IeC {\cyrn }\IeC {\cyre }\IeC {\cyrn }\IeC {\cyri }\IeC {\cyre } \IeC {\CYRSH }\IeC {\cyrr }\IeC {\cyre }\IeC {\cyrd }\IeC {\cyri }\IeC {\cyrn }\IeC {\cyrg }\IeC {\cyre }\IeC {\cyrr }\IeC {\cyra } \IeC {\cyrd }\IeC {\cyrl }\IeC {\cyrya } \IeC {\cyrv }\IeC {\cyro }\IeC {\cyrd }\IeC {\cyro }\IeC {\cyrr }\IeC {\cyro }\IeC {\cyrd }\IeC {\cyro }\IeC {\cyrp }\IeC {\cyro }\IeC {\cyrd }\IeC {\cyro }\IeC {\cyrb }\IeC {\cyrn }\IeC {\cyro }\IeC {\cyrg }\IeC {\cyro } \IeC {\cyra }\IeC {\cyrt }\IeC {\cyro }\IeC {\cyrm }\IeC {\cyra }}{5}{chapter.2}
\contentsline {section}{\numberline {2.1}\IeC {\CYRU }\IeC {\cyrr }\IeC {\cyra }\IeC {\cyrv }\IeC {\cyrn }\IeC {\cyre }\IeC {\cyrn }\IeC {\cyri }\IeC {\cyre } \IeC {\CYRSH }\IeC {\cyrr }\IeC {\cyre }\IeC {\cyrd }\IeC {\cyri }\IeC {\cyrn }\IeC {\cyrg }\IeC {\cyre }\IeC {\cyrr }\IeC {\cyra } \IeC {\cyra }\IeC {\cyrt }\IeC {\cyro }\IeC {\cyrm }\IeC {\cyro }\IeC {\cyrv } \IeC {\cyri }\IeC {\cyrl }\IeC {\cyri } \IeC {\cyra }\IeC {\cyrt }\IeC {\cyro }\IeC {\cyrm }\IeC {\cyrn }\IeC {\cyrery }\IeC {\cyrh } \IeC {\cyri }\IeC {\cyro }\IeC {\cyrn }\IeC {\cyro }\IeC {\cyrv }}{5}{section.2.1}
\contentsline {chapter}{\numberline {3}\IeC {\CYRT }\IeC {\cyre }\IeC {\cyro }\IeC {\cyrr }\IeC {\cyre }\IeC {\cyrm }\IeC {\cyra } \IeC {\cyro } \IeC {\cyrr }\IeC {\cyra }\IeC {\cyrs }\IeC {\cyrh }\IeC {\cyro }\IeC {\cyrd }\IeC {\cyri }\IeC {\cyrm }\IeC {\cyro }\IeC {\cyrs }\IeC {\cyrt }\IeC {\cyri }}{6}{chapter.3}
\contentsline {section}{\numberline {3.1}\IeC {\CYRF }\IeC {\cyro }\IeC {\cyrr }\IeC {\cyrm }\IeC {\cyru }\IeC {\cyrl }\IeC {\cyra } \IeC {\CYRG }\IeC {\cyra }\IeC {\cyru }\IeC {\cyrs }\IeC {\cyrs }\IeC {\cyra } \IeC {\textemdash } \IeC {\CYRO }\IeC {\cyrs }\IeC {\cyrt }\IeC {\cyrr }\IeC {\cyro }\IeC {\cyrg }\IeC {\cyrr }\IeC {\cyra }\IeC {\cyrd }\IeC {\cyrs }\IeC {\cyrk }\IeC {\cyro }\IeC {\cyrg }\IeC {\cyro }}{6}{section.3.1}
